…
<img src="Bacterial-Carbon_files/figure-gfm/unnamed-chunk-16-1.png" style="display: block; margin: auto;" />

The points are colored by the QC flag associated with the POC samples.
”Questionable” measures indicate below average (of all samples, not
grouped) cell retention on the POC filters. “ND” indicates no data.

# C:N Ratios

    ## # A tibble: 24 x 4
    ## # Groups:   Cruise [3]
    ##    Cruise correction ave_cn    sd
    ##    <chr>  <chr>       <dbl> <dbl>
    ##  1 AT34   i.cn          7.4   2.1
    ##  2 AT34   i.cn.c1       7.8   4.1
    ##  3 AT34   i.cn.c2       7.6   3.9
    ##  4 AT34   i.cn.c3       8.8   3.4
    ##  5 AT34   s.cn          6.6   4.1
    ##  6 AT34   s.cn.c1       5.1   2.7
    ##  7 AT34   s.cn.c2       4.7   2.7
    ##  8 AT34   s.cn.c3       5.4   2.7
    ##  9 AT38   i.cn         14.5   6.7
    ## 10 AT38   i.cn.c1      14.2   6.3
    ## # … with 14 more rows
…
