…
bge_summary.table 
```

    ## # A tibble: 24 x 31
    ##    Season Station Bottle del.poc del.boc del.doc del.doc.star i.ccf calc    bge
    ##    <chr>  <chr>   <chr>    <dbl>   <dbl>   <dbl>        <dbl> <dbl> <chr> <dbl>
    ##  1 Early… 2       A        NA      2.5     NA            4.2     77 bge    0.6 
    ##  2 Early… 2       B        NA      2.70    NA            4.20    77 bge    0.64
    ##  3 Early… 3       A        NA      0.80    NA            2.90    60 bge    0.28
    ##  4 Early… 3       B        NA      1.60    NA            2.10    60 bge    0.76
    ##  5 Early… 4       A        NA      0.900   NA            1.9     59 bge    0.47
    ##  6 Early… 5       A        NA      0.4     NA            1.7     37 bge    0.24
    ##  7 Early… 6       A        NA      0.7     NA            2.70    43 bge    0.26
    ##  8 Early… 6       B        NA      0.3     NA            2.40    43 bge    0.13
    ##  9 Early… 1       A         0.98  NA        3.10        NA       NA bge.…  0.32
    ## 10 Early… 3       B         0.74   0.9      2.90        NA        7 bge.…  0.26
    ## # … with 14 more rows, and 21 more variables: ave_bge <dbl>, sd_bge <dbl>,
    ## #   ave_ccf_cruise <dbl>, sd_ccf_cruise <dbl>, ave_bge_cruise <dbl>,
    ## #   sd_bge_cruise <dbl>, min_bge_cruise <dbl>, max_bge_cruise <dbl>, n <dbl>,
    ## #   ave_bge_station <dbl>, sd_bge_station <dbl>, ave_del.poc_station <dbl>,
    ## #   sd_del.poc_station <dbl>, ave_del.boc_station <dbl>,
    ## #   sd_del.boc_station <dbl>, ave_del.doc_station <dbl>,
    ## #   sd_del.doc_station <dbl>, ave_del.doc.star_station <dbl>,
    ## #   sd_del.doc.star_station <dbl>, ave_ccf_station <dbl>, sd_ccf_station <dbl>
…
