…
  mutate(ave_bge = mean(bge),
         sd_bge = sd(bge),
         min_bge = min(bge),
         max_bge = max(bge),
         med_bge = median(bge)) %>% 
  add_tally() %>% 
  ungroup() %>% 
  select(Season, type,  appr, ave_bge:med_bge, n) %>% 
  distinct() %>% 
  arrange(type, Season) %>% 
  mutate_at(vars(ave_bge:med_bge), round, 2) %>% 
  filter(!appr %in% c("bge.p.bc.dyn.ccf.c1", "bge.p.bc.dyn.ccf.c2", "bge.p.bc.dyn.ccf.c3", "bge.ph.bc.dyn.ccf.c1", "bge.ph.bc.dyn.ccf.c2", "bge.ph.bc.dyn.ccf.c3")) 
```

    ## # A tibble: 112 x 9
    ##    Season     type    appr          ave_bge sd_bge min_bge max_bge med_bge     n
    ##    <chr>      <chr>   <chr>           <dbl>  <dbl>   <dbl>   <dbl>   <dbl> <int>
    ##  1 Early Aut… Control bge.bc.poc       0.31   0.1     0.22    0.41    0.31     3
    ##  2 Early Aut… Control bge.bc.poc.c1    0.22   0.09    0.13    0.31    0.23     3
    ##  3 Early Aut… Control bge.bc.poc.c2    0.22   0.11    0.11    0.32    0.23     3
    ##  4 Early Aut… Control bge.bc.poc.c3    0.18   0.1     0.08    0.27    0.18     3
    ##  5 Early Aut… Control bge.p.bc.ccf…    0.22   0.08    0.12    0.28    0.27     6
    ##  6 Early Aut… Control bge.p.bc.ccf…    0.21   0.1     0.09    0.28    0.27     6
    ##  7 Early Aut… Control bge.p.bc.ccf…    0.18   0.07    0.09    0.24    0.22     6
    ##  8 Early Aut… Control bge.p.bc.ccf…    0.21   0.04    0.16    0.24    0.22     6
    ##  9 Early Aut… Control bge.p.bc.ccf…    0.34   0.05    0.28    0.38    0.36     6
    ## 10 Early Aut… Control bge.p.bc.ccf…    0.44   0.05    0.38    0.48    0.47     6
    ## # … with 102 more rows
…
